RX_{logggTest_iIs16_jIs0_kIs0_lIs16_mIs1001_RandomSeed1_PerformanceEvaluation_APsAnd50Nodes_Assoc_New_Subnets_Rat_DualDirFlow_3APP_AP1_RandomTopoScan390000.err}
FSDGatheringSimplified_Uplink_OtherNodes.sh: line 24: Throughput/RX_{logggTest_iIs16_jIs0_kIs0_lIs16_mIs1001_RandomSeed1_PerformanceEvaluation_APsAnd50Nodes_Assoc_New_Subnets_Rat_DualDirFlow_3APP_AP1_RandomTopoScan390000.err}_UpLink: No such file or directory
FSDGatheringSimplified_Uplink_OtherNodes.sh: line 25: Throughput/RX_{logggTest_iIs16_jIs0_kIs0_lIs16_mIs1001_RandomSeed1_PerformanceEvaluation_APsAnd50Nodes_Assoc_New_Subnets_Rat_DualDirFlow_3APP_AP1_RandomTopoScan390000.err}_UpLink: No such file or directory
10\.1\.3\.2,
FSDGatheringSimplified_Uplink_OtherNodes.sh: line 31: Throughput/RX_{logggTest_iIs16_jIs0_kIs0_lIs16_mIs1001_RandomSeed1_PerformanceEvaluation_APsAnd50Nodes_Assoc_New_Subnets_Rat_DualDirFlow_3APP_AP1_RandomTopoScan390000.err}_tmp_10\.1\.3\.2_AP1: No such file or directory
cat: Throughput/RX_{logggTest_iIs16_jIs0_kIs0_lIs16_mIs1001_RandomSeed1_PerformanceEvaluation_APsAnd50Nodes_Assoc_New_Subnets_Rat_DualDirFlow_3APP_AP1_RandomTopoScan390000.err}_tmp_UpLink: No such file or directory
10\.1\.3\.2 done.
10\.1\.3\.3,
FSDGatheringSimplified_Uplink_OtherNodes.sh: line 31: Throughput/RX_{logggTest_iIs16_jIs0_kIs0_lIs16_mIs1001_RandomSeed1_PerformanceEvaluation_APsAnd50Nodes_Assoc_New_Subnets_Rat_DualDirFlow_3APP_AP1_RandomTopoScan390000.err}_tmp_10\.1\.3\.3_AP1: No such file or directory
cat: Throughput/RX_{logggTest_iIs16_jIs0_kIs0_lIs16_mIs1001_RandomSeed1_PerformanceEvaluation_APsAnd50Nodes_Assoc_New_Subnets_Rat_DualDirFlow_3APP_AP1_RandomTopoScan390000.err}_tmp_UpLink: No such file or directory
10\.1\.3\.3 done.
10\.1\.3\.4,
FSDGatheringSimplified_Uplink_OtherNodes.sh: line 31: Throughput/RX_{logggTest_iIs16_jIs0_kIs0_lIs16_mIs1001_RandomSeed1_PerformanceEvaluation_APsAnd50Nodes_Assoc_New_Subnets_Rat_DualDirFlow_3APP_AP1_RandomTopoScan390000.err}_tmp_10\.1\.3\.4_AP1: No such file or directory
cat: Throughput/RX_{logggTest_iIs16_jIs0_kIs0_lIs16_mIs1001_RandomSeed1_PerformanceEvaluation_APsAnd50Nodes_Assoc_New_Subnets_Rat_DualDirFlow_3APP_AP1_RandomTopoScan390000.err}_tmp_UpLink: No such file or directory
10\.1\.3\.4 done.
10\.1\.3\.5,
FSDGatheringSimplified_Uplink_OtherNodes.sh: line 31: Throughput/RX_{logggTest_iIs16_jIs0_kIs0_lIs16_mIs1001_RandomSeed1_PerformanceEvaluation_APsAnd50Nodes_Assoc_New_Subnets_Rat_DualDirFlow_3APP_AP1_RandomTopoScan390000.err}_tmp_10\.1\.3\.5_AP1: No such file or directory
cat: Throughput/RX_{logggTest_iIs16_jIs0_kIs0_lIs16_mIs1001_RandomSeed1_PerformanceEvaluation_APsAnd50Nodes_Assoc_New_Subnets_Rat_DualDirFlow_3APP_AP1_RandomTopoScan390000.err}_tmp_UpLink: No such file or directory
10\.1\.3\.5 done.
10\.1\.3\.6,
FSDGatheringSimplified_Uplink_OtherNodes.sh: line 31: Throughput/RX_{logggTest_iIs16_jIs0_kIs0_lIs16_mIs1001_RandomSeed1_PerformanceEvaluation_APsAnd50Nodes_Assoc_New_Subnets_Rat_DualDirFlow_3APP_AP1_RandomTopoScan390000.err}_tmp_10\.1\.3\.6_AP1: No such file or directory
cat: Throughput/RX_{logggTest_iIs16_jIs0_kIs0_lIs16_mIs1001_RandomSeed1_PerformanceEvaluation_APsAnd50Nodes_Assoc_New_Subnets_Rat_DualDirFlow_3APP_AP1_RandomTopoScan390000.err}_tmp_UpLink: No such file or directory
10\.1\.3\.6 done.
10\.1\.3\.7,
FSDGatheringSimplified_Uplink_OtherNodes.sh: line 31: Throughput/RX_{logggTest_iIs16_jIs0_kIs0_lIs16_mIs1001_RandomSeed1_PerformanceEvaluation_APsAnd50Nodes_Assoc_New_Subnets_Rat_DualDirFlow_3APP_AP1_RandomTopoScan390000.err}_tmp_10\.1\.3\.7_AP1: No such file or directory
cat: Throughput/RX_{logggTest_iIs16_jIs0_kIs0_lIs16_mIs1001_RandomSeed1_PerformanceEvaluation_APsAnd50Nodes_Assoc_New_Subnets_Rat_DualDirFlow_3APP_AP1_RandomTopoScan390000.err}_tmp_UpLink: No such file or directory
10\.1\.3\.7 done.
10\.1\.3\.8,
FSDGatheringSimplified_Uplink_OtherNodes.sh: line 31: Throughput/RX_{logggTest_iIs16_jIs0_kIs0_lIs16_mIs1001_RandomSeed1_PerformanceEvaluation_APsAnd50Nodes_Assoc_New_Subnets_Rat_DualDirFlow_3APP_AP1_RandomTopoScan390000.err}_tmp_10\.1\.3\.8_AP1: No such file or directory
cat: Throughput/RX_{logggTest_iIs16_jIs0_kIs0_lIs16_mIs1001_RandomSeed1_PerformanceEvaluation_APsAnd50Nodes_Assoc_New_Subnets_Rat_DualDirFlow_3APP_AP1_RandomTopoScan390000.err}_tmp_UpLink: No such file or directory
10\.1\.3\.8 done.
10\.1\.3\.9,
FSDGatheringSimplified_Uplink_OtherNodes.sh: line 31: Throughput/RX_{logggTest_iIs16_jIs0_kIs0_lIs16_mIs1001_RandomSeed1_PerformanceEvaluation_APsAnd50Nodes_Assoc_New_Subnets_Rat_DualDirFlow_3APP_AP1_RandomTopoScan390000.err}_tmp_10\.1\.3\.9_AP1: No such file or directory
cat: Throughput/RX_{logggTest_iIs16_jIs0_kIs0_lIs16_mIs1001_RandomSeed1_PerformanceEvaluation_APsAnd50Nodes_Assoc_New_Subnets_Rat_DualDirFlow_3APP_AP1_RandomTopoScan390000.err}_tmp_UpLink: No such file or directory
10\.1\.3\.9 done.
10\.1\.3\.10,
FSDGatheringSimplified_Uplink_OtherNodes.sh: line 31: Throughput/RX_{logggTest_iIs16_jIs0_kIs0_lIs16_mIs1001_RandomSeed1_PerformanceEvaluation_APsAnd50Nodes_Assoc_New_Subnets_Rat_DualDirFlow_3APP_AP1_RandomTopoScan390000.err}_tmp_10\.1\.3\.10_AP1: No such file or directory
cat: Throughput/RX_{logggTest_iIs16_jIs0_kIs0_lIs16_mIs1001_RandomSeed1_PerformanceEvaluation_APsAnd50Nodes_Assoc_New_Subnets_Rat_DualDirFlow_3APP_AP1_RandomTopoScan390000.err}_tmp_UpLink: No such file or directory
10\.1\.3\.10 done.
10\.1\.3\.11,
FSDGatheringSimplified_Uplink_OtherNodes.sh: line 31: Throughput/RX_{logggTest_iIs16_jIs0_kIs0_lIs16_mIs1001_RandomSeed1_PerformanceEvaluation_APsAnd50Nodes_Assoc_New_Subnets_Rat_DualDirFlow_3APP_AP1_RandomTopoScan390000.err}_tmp_10\.1\.3\.11_AP1: No such file or directory
cat: Throughput/RX_{logggTest_iIs16_jIs0_kIs0_lIs16_mIs1001_RandomSeed1_PerformanceEvaluation_APsAnd50Nodes_Assoc_New_Subnets_Rat_DualDirFlow_3APP_AP1_RandomTopoScan390000.err}_tmp_UpLink: No such file or directory
10\.1\.3\.11 done.
10\.1\.3\.12,
FSDGatheringSimplified_Uplink_OtherNodes.sh: line 31: Throughput/RX_{logggTest_iIs16_jIs0_kIs0_lIs16_mIs1001_RandomSeed1_PerformanceEvaluation_APsAnd50Nodes_Assoc_New_Subnets_Rat_DualDirFlow_3APP_AP1_RandomTopoScan390000.err}_tmp_10\.1\.3\.12_AP1: No such file or directory
cat: Throughput/RX_{logggTest_iIs16_jIs0_kIs0_lIs16_mIs1001_RandomSeed1_PerformanceEvaluation_APsAnd50Nodes_Assoc_New_Subnets_Rat_DualDirFlow_3APP_AP1_RandomTopoScan390000.err}_tmp_UpLink: No such file or directory
10\.1\.3\.12 done.
10\.1\.3\.13,
FSDGatheringSimplified_Uplink_OtherNodes.sh: line 31: Throughput/RX_{logggTest_iIs16_jIs0_kIs0_lIs16_mIs1001_RandomSeed1_PerformanceEvaluation_APsAnd50Nodes_Assoc_New_Subnets_Rat_DualDirFlow_3APP_AP1_RandomTopoScan390000.err}_tmp_10\.1\.3\.13_AP1: No such file or directory
cat: Throughput/RX_{logggTest_iIs16_jIs0_kIs0_lIs16_mIs1001_RandomSeed1_PerformanceEvaluation_APsAnd50Nodes_Assoc_New_Subnets_Rat_DualDirFlow_3APP_AP1_RandomTopoScan390000.err}_tmp_UpLink: No such file or directory
10\.1\.3\.13 done.
10\.1\.3\.14,
FSDGatheringSimplified_Uplink_OtherNodes.sh: line 31: Throughput/RX_{logggTest_iIs16_jIs0_kIs0_lIs16_mIs1001_RandomSeed1_PerformanceEvaluation_APsAnd50Nodes_Assoc_New_Subnets_Rat_DualDirFlow_3APP_AP1_RandomTopoScan390000.err}_tmp_10\.1\.3\.14_AP1: No such file or directory
cat: Throughput/RX_{logggTest_iIs16_jIs0_kIs0_lIs16_mIs1001_RandomSeed1_PerformanceEvaluation_APsAnd50Nodes_Assoc_New_Subnets_Rat_DualDirFlow_3APP_AP1_RandomTopoScan390000.err}_tmp_UpLink: No such file or directory
10\.1\.3\.14 done.
10\.1\.3\.15,
FSDGatheringSimplified_Uplink_OtherNodes.sh: line 31: Throughput/RX_{logggTest_iIs16_jIs0_kIs0_lIs16_mIs1001_RandomSeed1_PerformanceEvaluation_APsAnd50Nodes_Assoc_New_Subnets_Rat_DualDirFlow_3APP_AP1_RandomTopoScan390000.err}_tmp_10\.1\.3\.15_AP1: No such file or directory
cat: Throughput/RX_{logggTest_iIs16_jIs0_kIs0_lIs16_mIs1001_RandomSeed1_PerformanceEvaluation_APsAnd50Nodes_Assoc_New_Subnets_Rat_DualDirFlow_3APP_AP1_RandomTopoScan390000.err}_tmp_UpLink: No such file or directory
10\.1\.3\.15 done.
10\.1\.3\.16,
FSDGatheringSimplified_Uplink_OtherNodes.sh: line 31: Throughput/RX_{logggTest_iIs16_jIs0_kIs0_lIs16_mIs1001_RandomSeed1_PerformanceEvaluation_APsAnd50Nodes_Assoc_New_Subnets_Rat_DualDirFlow_3APP_AP1_RandomTopoScan390000.err}_tmp_10\.1\.3\.16_AP1: No such file or directory
cat: Throughput/RX_{logggTest_iIs16_jIs0_kIs0_lIs16_mIs1001_RandomSeed1_PerformanceEvaluation_APsAnd50Nodes_Assoc_New_Subnets_Rat_DualDirFlow_3APP_AP1_RandomTopoScan390000.err}_tmp_UpLink: No such file or directory
10\.1\.3\.16 done.
10\.1\.3\.17,
FSDGatheringSimplified_Uplink_OtherNodes.sh: line 31: Throughput/RX_{logggTest_iIs16_jIs0_kIs0_lIs16_mIs1001_RandomSeed1_PerformanceEvaluation_APsAnd50Nodes_Assoc_New_Subnets_Rat_DualDirFlow_3APP_AP1_RandomTopoScan390000.err}_tmp_10\.1\.3\.17_AP1: No such file or directory
cat: Throughput/RX_{logggTest_iIs16_jIs0_kIs0_lIs16_mIs1001_RandomSeed1_PerformanceEvaluation_APsAnd50Nodes_Assoc_New_Subnets_Rat_DualDirFlow_3APP_AP1_RandomTopoScan390000.err}_tmp_UpLink: No such file or directory
10\.1\.3\.17 done.
10\.1\.3\.18,
FSDGatheringSimplified_Uplink_OtherNodes.sh: line 31: Throughput/RX_{logggTest_iIs16_jIs0_kIs0_lIs16_mIs1001_RandomSeed1_PerformanceEvaluation_APsAnd50Nodes_Assoc_New_Subnets_Rat_DualDirFlow_3APP_AP1_RandomTopoScan390000.err}_tmp_10\.1\.3\.18_AP1: No such file or directory
cat: Throughput/RX_{logggTest_iIs16_jIs0_kIs0_lIs16_mIs1001_RandomSeed1_PerformanceEvaluation_APsAnd50Nodes_Assoc_New_Subnets_Rat_DualDirFlow_3APP_AP1_RandomTopoScan390000.err}_tmp_UpLink: No such file or directory
10\.1\.3\.18 done.
10\.1\.3\.19,
FSDGatheringSimplified_Uplink_OtherNodes.sh: line 31: Throughput/RX_{logggTest_iIs16_jIs0_kIs0_lIs16_mIs1001_RandomSeed1_PerformanceEvaluation_APsAnd50Nodes_Assoc_New_Subnets_Rat_DualDirFlow_3APP_AP1_RandomTopoScan390000.err}_tmp_10\.1\.3\.19_AP1: No such file or directory
cat: Throughput/RX_{logggTest_iIs16_jIs0_kIs0_lIs16_mIs1001_RandomSeed1_PerformanceEvaluation_APsAnd50Nodes_Assoc_New_Subnets_Rat_DualDirFlow_3APP_AP1_RandomTopoScan390000.err}_tmp_UpLink: No such file or directory
10\.1\.3\.19 done.
RX_{logggTest_iIs16_jIs0_kIs0_lIs16_mIs1001_RandomSeed1_PerformanceEvaluation_APsAnd50Nodes_Assoc_New_Subnets_Rat_DualDirFlow_3APP_AP1_RandomTopoScan390000.err} done.
TX_{logggTest_iIs16_jIs0_kIs0_lIs16_mIs1001_RandomSeed1_PerformanceEvaluation_APsAnd50Nodes_Assoc_New_Subnets_Rat_DualDirFlow_3APP_AP1_RandomTopoScan390000.err}
FSDGatheringSimplified_Uplink_TX.sh: line 44: Throughput/TX_{logggTest_iIs16_jIs0_kIs0_lIs16_mIs1001_RandomSeed1_PerformanceEvaluation_APsAnd50Nodes_Assoc_New_Subnets_Rat_DualDirFlow_3APP_AP1_RandomTopoScan390000.err}_UpLink_Node3: No such file or directory
sed: can't read Throughput/TX_{logggTest_iIs16_jIs0_kIs0_lIs16_mIs1001_RandomSeed1_PerformanceEvaluation_APsAnd50Nodes_Assoc_New_Subnets_Rat_DualDirFlow_3APP_AP1_RandomTopoScan390000.err}_UpLink_Node3: No such file or directory
sed: can't read Throughput/TX_{logggTest_iIs16_jIs0_kIs0_lIs16_mIs1001_RandomSeed1_PerformanceEvaluation_APsAnd50Nodes_Assoc_New_Subnets_Rat_DualDirFlow_3APP_AP1_RandomTopoScan390000.err}_UpLink_Node3: No such file or directory
FSDGatheringSimplified_Uplink_TX.sh: line 44: Throughput/TX_{logggTest_iIs16_jIs0_kIs0_lIs16_mIs1001_RandomSeed1_PerformanceEvaluation_APsAnd50Nodes_Assoc_New_Subnets_Rat_DualDirFlow_3APP_AP1_RandomTopoScan390000.err}_UpLink_Node4: No such file or directory
sed: can't read Throughput/TX_{logggTest_iIs16_jIs0_kIs0_lIs16_mIs1001_RandomSeed1_PerformanceEvaluation_APsAnd50Nodes_Assoc_New_Subnets_Rat_DualDirFlow_3APP_AP1_RandomTopoScan390000.err}_UpLink_Node4: No such file or directory
sed: can't read Throughput/TX_{logggTest_iIs16_jIs0_kIs0_lIs16_mIs1001_RandomSeed1_PerformanceEvaluation_APsAnd50Nodes_Assoc_New_Subnets_Rat_DualDirFlow_3APP_AP1_RandomTopoScan390000.err}_UpLink_Node4: No such file or directory
FSDGatheringSimplified_Uplink_TX.sh: line 44: Throughput/TX_{logggTest_iIs16_jIs0_kIs0_lIs16_mIs1001_RandomSeed1_PerformanceEvaluation_APsAnd50Nodes_Assoc_New_Subnets_Rat_DualDirFlow_3APP_AP1_RandomTopoScan390000.err}_UpLink_Node5: No such file or directory
sed: can't read Throughput/TX_{logggTest_iIs16_jIs0_kIs0_lIs16_mIs1001_RandomSeed1_PerformanceEvaluation_APsAnd50Nodes_Assoc_New_Subnets_Rat_DualDirFlow_3APP_AP1_RandomTopoScan390000.err}_UpLink_Node5: No such file or directory
sed: can't read Throughput/TX_{logggTest_iIs16_jIs0_kIs0_lIs16_mIs1001_RandomSeed1_PerformanceEvaluation_APsAnd50Nodes_Assoc_New_Subnets_Rat_DualDirFlow_3APP_AP1_RandomTopoScan390000.err}_UpLink_Node5: No such file or directory
FSDGatheringSimplified_Uplink_TX.sh: line 44: Throughput/TX_{logggTest_iIs16_jIs0_kIs0_lIs16_mIs1001_RandomSeed1_PerformanceEvaluation_APsAnd50Nodes_Assoc_New_Subnets_Rat_DualDirFlow_3APP_AP1_RandomTopoScan390000.err}_UpLink_Node6: No such file or directory
sed: can't read Throughput/TX_{logggTest_iIs16_jIs0_kIs0_lIs16_mIs1001_RandomSeed1_PerformanceEvaluation_APsAnd50Nodes_Assoc_New_Subnets_Rat_DualDirFlow_3APP_AP1_RandomTopoScan390000.err}_UpLink_Node6: No such file or directory
sed: can't read Throughput/TX_{logggTest_iIs16_jIs0_kIs0_lIs16_mIs1001_RandomSeed1_PerformanceEvaluation_APsAnd50Nodes_Assoc_New_Subnets_Rat_DualDirFlow_3APP_AP1_RandomTopoScan390000.err}_UpLink_Node6: No such file or directory
FSDGatheringSimplified_Uplink_TX.sh: line 44: Throughput/TX_{logggTest_iIs16_jIs0_kIs0_lIs16_mIs1001_RandomSeed1_PerformanceEvaluation_APsAnd50Nodes_Assoc_New_Subnets_Rat_DualDirFlow_3APP_AP1_RandomTopoScan390000.err}_UpLink_Node7: No such file or directory
sed: can't read Throughput/TX_{logggTest_iIs16_jIs0_kIs0_lIs16_mIs1001_RandomSeed1_PerformanceEvaluation_APsAnd50Nodes_Assoc_New_Subnets_Rat_DualDirFlow_3APP_AP1_RandomTopoScan390000.err}_UpLink_Node7: No such file or directory
sed: can't read Throughput/TX_{logggTest_iIs16_jIs0_kIs0_lIs16_mIs1001_RandomSeed1_PerformanceEvaluation_APsAnd50Nodes_Assoc_New_Subnets_Rat_DualDirFlow_3APP_AP1_RandomTopoScan390000.err}_UpLink_Node7: No such file or directory
FSDGatheringSimplified_Uplink_TX.sh: line 44: Throughput/TX_{logggTest_iIs16_jIs0_kIs0_lIs16_mIs1001_RandomSeed1_PerformanceEvaluation_APsAnd50Nodes_Assoc_New_Subnets_Rat_DualDirFlow_3APP_AP1_RandomTopoScan390000.err}_UpLink_Node8: No such file or directory
sed: can't read Throughput/TX_{logggTest_iIs16_jIs0_kIs0_lIs16_mIs1001_RandomSeed1_PerformanceEvaluation_APsAnd50Nodes_Assoc_New_Subnets_Rat_DualDirFlow_3APP_AP1_RandomTopoScan390000.err}_UpLink_Node8: No such file or directory
sed: can't read Throughput/TX_{logggTest_iIs16_jIs0_kIs0_lIs16_mIs1001_RandomSeed1_PerformanceEvaluation_APsAnd50Nodes_Assoc_New_Subnets_Rat_DualDirFlow_3APP_AP1_RandomTopoScan390000.err}_UpLink_Node8: No such file or directory
FSDGatheringSimplified_Uplink_TX.sh: line 44: Throughput/TX_{logggTest_iIs16_jIs0_kIs0_lIs16_mIs1001_RandomSeed1_PerformanceEvaluation_APsAnd50Nodes_Assoc_New_Subnets_Rat_DualDirFlow_3APP_AP1_RandomTopoScan390000.err}_UpLink_Node9: No such file or directory
sed: can't read Throughput/TX_{logggTest_iIs16_jIs0_kIs0_lIs16_mIs1001_RandomSeed1_PerformanceEvaluation_APsAnd50Nodes_Assoc_New_Subnets_Rat_DualDirFlow_3APP_AP1_RandomTopoScan390000.err}_UpLink_Node9: No such file or directory
sed: can't read Throughput/TX_{logggTest_iIs16_jIs0_kIs0_lIs16_mIs1001_RandomSeed1_PerformanceEvaluation_APsAnd50Nodes_Assoc_New_Subnets_Rat_DualDirFlow_3APP_AP1_RandomTopoScan390000.err}_UpLink_Node9: No such file or directory
FSDGatheringSimplified_Uplink_TX.sh: line 44: Throughput/TX_{logggTest_iIs16_jIs0_kIs0_lIs16_mIs1001_RandomSeed1_PerformanceEvaluation_APsAnd50Nodes_Assoc_New_Subnets_Rat_DualDirFlow_3APP_AP1_RandomTopoScan390000.err}_UpLink_Node10: No such file or directory
sed: can't read Throughput/TX_{logggTest_iIs16_jIs0_kIs0_lIs16_mIs1001_RandomSeed1_PerformanceEvaluation_APsAnd50Nodes_Assoc_New_Subnets_Rat_DualDirFlow_3APP_AP1_RandomTopoScan390000.err}_UpLink_Node10: No such file or directory
sed: can't read Throughput/TX_{logggTest_iIs16_jIs0_kIs0_lIs16_mIs1001_RandomSeed1_PerformanceEvaluation_APsAnd50Nodes_Assoc_New_Subnets_Rat_DualDirFlow_3APP_AP1_RandomTopoScan390000.err}_UpLink_Node10: No such file or directory
FSDGatheringSimplified_Uplink_TX.sh: line 44: Throughput/TX_{logggTest_iIs16_jIs0_kIs0_lIs16_mIs1001_RandomSeed1_PerformanceEvaluation_APsAnd50Nodes_Assoc_New_Subnets_Rat_DualDirFlow_3APP_AP1_RandomTopoScan390000.err}_UpLink_Node11: No such file or directory
sed: can't read Throughput/TX_{logggTest_iIs16_jIs0_kIs0_lIs16_mIs1001_RandomSeed1_PerformanceEvaluation_APsAnd50Nodes_Assoc_New_Subnets_Rat_DualDirFlow_3APP_AP1_RandomTopoScan390000.err}_UpLink_Node11: No such file or directory
sed: can't read Throughput/TX_{logggTest_iIs16_jIs0_kIs0_lIs16_mIs1001_RandomSeed1_PerformanceEvaluation_APsAnd50Nodes_Assoc_New_Subnets_Rat_DualDirFlow_3APP_AP1_RandomTopoScan390000.err}_UpLink_Node11: No such file or directory
FSDGatheringSimplified_Uplink_TX.sh: line 44: Throughput/TX_{logggTest_iIs16_jIs0_kIs0_lIs16_mIs1001_RandomSeed1_PerformanceEvaluation_APsAnd50Nodes_Assoc_New_Subnets_Rat_DualDirFlow_3APP_AP1_RandomTopoScan390000.err}_UpLink_Node12: No such file or directory
sed: can't read Throughput/TX_{logggTest_iIs16_jIs0_kIs0_lIs16_mIs1001_RandomSeed1_PerformanceEvaluation_APsAnd50Nodes_Assoc_New_Subnets_Rat_DualDirFlow_3APP_AP1_RandomTopoScan390000.err}_UpLink_Node12: No such file or directory
sed: can't read Throughput/TX_{logggTest_iIs16_jIs0_kIs0_lIs16_mIs1001_RandomSeed1_PerformanceEvaluation_APsAnd50Nodes_Assoc_New_Subnets_Rat_DualDirFlow_3APP_AP1_RandomTopoScan390000.err}_UpLink_Node12: No such file or directory
FSDGatheringSimplified_Uplink_TX.sh: line 44: Throughput/TX_{logggTest_iIs16_jIs0_kIs0_lIs16_mIs1001_RandomSeed1_PerformanceEvaluation_APsAnd50Nodes_Assoc_New_Subnets_Rat_DualDirFlow_3APP_AP1_RandomTopoScan390000.err}_UpLink_Node13: No such file or directory
sed: can't read Throughput/TX_{logggTest_iIs16_jIs0_kIs0_lIs16_mIs1001_RandomSeed1_PerformanceEvaluation_APsAnd50Nodes_Assoc_New_Subnets_Rat_DualDirFlow_3APP_AP1_RandomTopoScan390000.err}_UpLink_Node13: No such file or directory
sed: can't read Throughput/TX_{logggTest_iIs16_jIs0_kIs0_lIs16_mIs1001_RandomSeed1_PerformanceEvaluation_APsAnd50Nodes_Assoc_New_Subnets_Rat_DualDirFlow_3APP_AP1_RandomTopoScan390000.err}_UpLink_Node13: No such file or directory
FSDGatheringSimplified_Uplink_TX.sh: line 44: Throughput/TX_{logggTest_iIs16_jIs0_kIs0_lIs16_mIs1001_RandomSeed1_PerformanceEvaluation_APsAnd50Nodes_Assoc_New_Subnets_Rat_DualDirFlow_3APP_AP1_RandomTopoScan390000.err}_UpLink_Node14: No such file or directory
sed: can't read Throughput/TX_{logggTest_iIs16_jIs0_kIs0_lIs16_mIs1001_RandomSeed1_PerformanceEvaluation_APsAnd50Nodes_Assoc_New_Subnets_Rat_DualDirFlow_3APP_AP1_RandomTopoScan390000.err}_UpLink_Node14: No such file or directory
sed: can't read Throughput/TX_{logggTest_iIs16_jIs0_kIs0_lIs16_mIs1001_RandomSeed1_PerformanceEvaluation_APsAnd50Nodes_Assoc_New_Subnets_Rat_DualDirFlow_3APP_AP1_RandomTopoScan390000.err}_UpLink_Node14: No such file or directory
FSDGatheringSimplified_Uplink_TX.sh: line 44: Throughput/TX_{logggTest_iIs16_jIs0_kIs0_lIs16_mIs1001_RandomSeed1_PerformanceEvaluation_APsAnd50Nodes_Assoc_New_Subnets_Rat_DualDirFlow_3APP_AP1_RandomTopoScan390000.err}_UpLink_Node15: No such file or directory
sed: can't read Throughput/TX_{logggTest_iIs16_jIs0_kIs0_lIs16_mIs1001_RandomSeed1_PerformanceEvaluation_APsAnd50Nodes_Assoc_New_Subnets_Rat_DualDirFlow_3APP_AP1_RandomTopoScan390000.err}_UpLink_Node15: No such file or directory
sed: can't read Throughput/TX_{logggTest_iIs16_jIs0_kIs0_lIs16_mIs1001_RandomSeed1_PerformanceEvaluation_APsAnd50Nodes_Assoc_New_Subnets_Rat_DualDirFlow_3APP_AP1_RandomTopoScan390000.err}_UpLink_Node15: No such file or directory
FSDGatheringSimplified_Uplink_TX.sh: line 44: Throughput/TX_{logggTest_iIs16_jIs0_kIs0_lIs16_mIs1001_RandomSeed1_PerformanceEvaluation_APsAnd50Nodes_Assoc_New_Subnets_Rat_DualDirFlow_3APP_AP1_RandomTopoScan390000.err}_UpLink_Node16: No such file or directory
sed: can't read Throughput/TX_{logggTest_iIs16_jIs0_kIs0_lIs16_mIs1001_RandomSeed1_PerformanceEvaluation_APsAnd50Nodes_Assoc_New_Subnets_Rat_DualDirFlow_3APP_AP1_RandomTopoScan390000.err}_UpLink_Node16: No such file or directory
sed: can't read Throughput/TX_{logggTest_iIs16_jIs0_kIs0_lIs16_mIs1001_RandomSeed1_PerformanceEvaluation_APsAnd50Nodes_Assoc_New_Subnets_Rat_DualDirFlow_3APP_AP1_RandomTopoScan390000.err}_UpLink_Node16: No such file or directory
FSDGatheringSimplified_Uplink_TX.sh: line 44: Throughput/TX_{logggTest_iIs16_jIs0_kIs0_lIs16_mIs1001_RandomSeed1_PerformanceEvaluation_APsAnd50Nodes_Assoc_New_Subnets_Rat_DualDirFlow_3APP_AP1_RandomTopoScan390000.err}_UpLink_Node17: No such file or directory
sed: can't read Throughput/TX_{logggTest_iIs16_jIs0_kIs0_lIs16_mIs1001_RandomSeed1_PerformanceEvaluation_APsAnd50Nodes_Assoc_New_Subnets_Rat_DualDirFlow_3APP_AP1_RandomTopoScan390000.err}_UpLink_Node17: No such file or directory
sed: can't read Throughput/TX_{logggTest_iIs16_jIs0_kIs0_lIs16_mIs1001_RandomSeed1_PerformanceEvaluation_APsAnd50Nodes_Assoc_New_Subnets_Rat_DualDirFlow_3APP_AP1_RandomTopoScan390000.err}_UpLink_Node17: No such file or directory
FSDGatheringSimplified_Uplink_TX.sh: line 44: Throughput/TX_{logggTest_iIs16_jIs0_kIs0_lIs16_mIs1001_RandomSeed1_PerformanceEvaluation_APsAnd50Nodes_Assoc_New_Subnets_Rat_DualDirFlow_3APP_AP1_RandomTopoScan390000.err}_UpLink_Node18: No such file or directory
sed: can't read Throughput/TX_{logggTest_iIs16_jIs0_kIs0_lIs16_mIs1001_RandomSeed1_PerformanceEvaluation_APsAnd50Nodes_Assoc_New_Subnets_Rat_DualDirFlow_3APP_AP1_RandomTopoScan390000.err}_UpLink_Node18: No such file or directory
sed: can't read Throughput/TX_{logggTest_iIs16_jIs0_kIs0_lIs16_mIs1001_RandomSeed1_PerformanceEvaluation_APsAnd50Nodes_Assoc_New_Subnets_Rat_DualDirFlow_3APP_AP1_RandomTopoScan390000.err}_UpLink_Node18: No such file or directory
FSDGatheringSimplified_Uplink_TX.sh: line 44: Throughput/TX_{logggTest_iIs16_jIs0_kIs0_lIs16_mIs1001_RandomSeed1_PerformanceEvaluation_APsAnd50Nodes_Assoc_New_Subnets_Rat_DualDirFlow_3APP_AP1_RandomTopoScan390000.err}_UpLink_Node19: No such file or directory
sed: can't read Throughput/TX_{logggTest_iIs16_jIs0_kIs0_lIs16_mIs1001_RandomSeed1_PerformanceEvaluation_APsAnd50Nodes_Assoc_New_Subnets_Rat_DualDirFlow_3APP_AP1_RandomTopoScan390000.err}_UpLink_Node19: No such file or directory
sed: can't read Throughput/TX_{logggTest_iIs16_jIs0_kIs0_lIs16_mIs1001_RandomSeed1_PerformanceEvaluation_APsAnd50Nodes_Assoc_New_Subnets_Rat_DualDirFlow_3APP_AP1_RandomTopoScan390000.err}_UpLink_Node19: No such file or directory
RX_{logggTest_iIs16_jIs0_kIs0_lIs16_mIs1001_RandomSeed1_PerformanceEvaluation_APsAnd50Nodes_Assoc_New_Subnets_Rat_DualDirFlow_3APP_AP1_RandomTopoScan390000.err} done.
QueueDropped_{logggTest_iIs16_jIs0_kIs0_lIs16_mIs1001_RandomSeed1_PerformanceEvaluation_APsAnd50Nodes_Assoc_New_Subnets_Rat_DualDirFlow_3APP_AP1_RandomTopoScan390000.err} Done.
