RX_{logggTest_iIs16_jIs6_kIs16_lIs16_mIs1001_RandomSeed9_PerformanceEvaluation_APsAnd50Nodes_Assoc_New_Subnets_Rat_DualDirFlow_3APP_AP1_RandomTopo.err}
10\.1\.3\.2,
10\.1\.3\.2 done.
10\.1\.3\.3,
10\.1\.3\.3 done.
10\.1\.3\.4,
10\.1\.3\.4 done.
10\.1\.3\.5,
10\.1\.3\.5 done.
10\.1\.3\.6,
10\.1\.3\.6 done.
10\.1\.3\.7,
10\.1\.3\.7 done.
10\.1\.3\.8,
10\.1\.3\.8 done.
10\.1\.3\.9,
10\.1\.3\.9 done.
10\.1\.3\.10,
10\.1\.3\.10 done.
10\.1\.3\.11,
10\.1\.3\.11 done.
10\.1\.3\.12,
10\.1\.3\.12 done.
10\.1\.3\.13,
10\.1\.3\.13 done.
10\.1\.3\.14,
10\.1\.3\.14 done.
10\.1\.3\.15,
10\.1\.3\.15 done.
10\.1\.3\.16,
10\.1\.3\.16 done.
10\.1\.3\.17,
10\.1\.3\.17 done.
10\.1\.3\.18,
10\.1\.3\.18 done.
10\.1\.3\.19,
10\.1\.3\.19 done.
RX_{logggTest_iIs16_jIs6_kIs16_lIs16_mIs1001_RandomSeed9_PerformanceEvaluation_APsAnd50Nodes_Assoc_New_Subnets_Rat_DualDirFlow_3APP_AP1_RandomTopo.err} done.
TX_{logggTest_iIs16_jIs6_kIs16_lIs16_mIs1001_RandomSeed9_PerformanceEvaluation_APsAnd50Nodes_Assoc_New_Subnets_Rat_DualDirFlow_3APP_AP1_RandomTopo.err}
RX_{logggTest_iIs16_jIs6_kIs16_lIs16_mIs1001_RandomSeed9_PerformanceEvaluation_APsAnd50Nodes_Assoc_New_Subnets_Rat_DualDirFlow_3APP_AP1_RandomTopo.err} done.
QueueDropped_{logggTest_iIs16_jIs6_kIs16_lIs16_mIs1001_RandomSeed9_PerformanceEvaluation_APsAnd50Nodes_Assoc_New_Subnets_Rat_DualDirFlow_3APP_AP1_RandomTopo.err} Done.
