bash: FSDGatheringSimplified_Uplink_OtherNodes.sh: No such file or directory
bash: FSDGatheringSimplified_Uplink_TX.sh: No such file or directory
bash: DropAll.sh: No such file or directory
slurmstepd: error: Exceeded step memory limit at some point.
